…
**EDA\_step 2**: Tidy the dataset (every variable gets a column, every
observation occupies a single row), if necessary.

``` r
beginningReaders %>% 
pivot_longer(.,cols = PC1:PC4, 
             names_to = "PC", values_to = "PC_value") # Tidy the dataset (every variable gets a column, every observation occupies a single row), if necessary.
```

    ## # A tibble: 31,692 x 11
    ##    Word  Subject LogRT Trial OrthLength LogFrequency LogFamilySize ReadingScore
    ##    <fct> <fct>   <dbl> <int>      <int>        <dbl>         <dbl>        <int>
    ##  1 avon… S28      7.41   190          8         4.39          1.61           39
    ##  2 avon… S28      7.41   190          8         4.39          1.61           39
    ##  3 avon… S28      7.41   190          8         4.39          1.61           39
    ##  4 avon… S28      7.41   190          8         4.39          1.61           39
    ##  5 avon… S40      8.07   298          8         4.39          1.61           34
    ##  6 avon… S40      8.07   298          8         4.39          1.61           34
    ##  7 avon… S40      8.07   298          8         4.39          1.61           34
    ##  8 avon… S40      8.07   298          8         4.39          1.61           34
    ##  9 avon… S37      6.74   172          8         4.39          1.61           61
    ## 10 avon… S37      6.74   172          8         4.39          1.61           61
    ## # … with 31,682 more rows, and 3 more variables: ProportionOfErrors <dbl>,
    ## #   PC <chr>, PC_value <dbl>
…
